Sunday,Monday,Tuesday,Wednesday,Thursday,Friday,Saturday
5,2,3,2,3,3,5
4,2,2,2,2,2,4
3,1,2,2,2,2,3
2,0,1,2,1,1,2
1,0,0,1,0,1,1
0,0,1,1,1,1,0
0,10,10,9,9,8,0
0,43,47,44,42,31,2
1,53,60,56,52,36,5
5,26,30,28,28,22,10
10,19,20,20,21,21,16
14,20,21,21,22,24,22
18,22,22,23,24,28,26
19,23,23,24,25,30,26
17,25,26,27,29,36,24
15,31,34,36,37,46,21
14,46,53,57,56,55,19
12,53,64,68,65,47,19
10,27,34,37,34,26,15
8,13,15,16,16,16,13
7,9,10,11,11,11,10
6,7,8,8,9,10,9
5,6,8,8,7,10,9
3,4,4,4,4,8,8
